<?xml version="1.0" encoding="utf-8"?>
<!-- Generator: Adobe Illustrator 21.1.0, SVG Export Plug-In . SVG Version: 6.00 Build 0)  -->
<svg version="1.1" id="组_109" xmlns="http://www.w3.org/2000/svg" xmlns:xlink="http://www.w3.org/1999/xlink" x="0px" y="0px"
	 width="64.9px" height="58.9px" viewBox="0 0 64.9 58.9" style="enable-background:new 0 0 64.9 58.9;" xml:space="preserve">
<style type="text/css">
	.st0{opacity:0.1;fill:#FFFFFF;}
</style>
<path id="路径_88" class="st0" d="M36.2,46.5c2.8,3.7,6.2,5.7,10.1,6c4.3,0.5,8.6-0.7,12.1-3.4c3.4-2.7,5.4-6.7,5.6-11
	c0.7-7.9-3.7-13.9-13-17.8c-0.4-0.2-1.1-0.6-0.7-1.2c1.7-2.9,3.9-5.5,6.5-7.7c1.4-1.2,3.7-2.9,6.9-5.1c1-0.6,1.5-1.9,1-3l-1.5-2.2
	c-0.8-0.8-2-1-3-0.5C46.4,8.4,37.6,16.9,33.9,26.1C38,32.1,38.9,39.8,36.2,46.5L36.2,46.5z"/>
<path id="路径_89" class="st0" d="M31.8,0.3c1.1-0.6,2.5-0.4,3.3,0.5l1.6,2.5c0.5,1.3,0,2.7-1.2,3.4c-3.5,2.5-6.1,4.4-7.7,5.7
	c-2.9,2.5-5.4,5.4-7.3,8.7c-0.4,0.7,0.4,1.2,0.8,1.4c10.5,4.4,15.4,11.1,14.6,20.1c-0.2,4.8-2.5,9.4-6.3,12.4s-8.7,4.4-13.6,3.8
	c-4.7-0.4-8.7-2.9-11.9-7.5c-3-3.8-4.5-8.6-4.2-13.5C1.2,24,11.8,11.6,31.8,0.3L31.8,0.3z"/>
</svg>
