<?xml version="1.0" encoding="utf-8"?>
<!-- Generator: Adobe Illustrator 21.1.0, SVG Export Plug-In . SVG Version: 6.00 Build 0)  -->
<svg version="1.1" id="组_142" xmlns="http://www.w3.org/2000/svg" xmlns:xlink="http://www.w3.org/1999/xlink" x="0px" y="0px"
	 width="50px" height="50px" viewBox="0 0 50 50" style="enable-background:new 0 0 50 50;" xml:space="preserve">
<style type="text/css">
	.st0{fill:#FFFFFF;}
</style>
<rect id="矩形_15" x="8" y="19.2" class="st0" width="7.4" height="22.6"/>
<path id="路径_106" class="st0" d="M12.9,8.4l-1.3-0.1c-1.8-0.1-3.5,1.1-4,2.8L7.5,12v0.2c-0.1,1.8,1.1,3.3,2.8,3.7l1,0.1h0.8
	c1.8,0,3.1-1,3.8-3l0.1-0.9C15.9,10.3,14.9,9.1,12.9,8.4z"/>
<path id="路径_107" class="st0" d="M37.1,19.2c-1.1-0.3-2.2-0.5-3.4-0.5c-2.7,0-5.2,1.4-6.6,3.7H27v-3.1h-7.4v22.6H27V30.1
	c0-2.2,0.3-3.6,1-4c0.7-0.9,1.7-1.5,2.8-1.5h0.5c1.7,0,2.8,1,3.4,3c0.1,0.7,0.2,1.4,0.2,2.1v12.1h7.5V29.4
	C42.5,23.9,40.7,20.5,37.1,19.2z"/>
</svg>
