<?xml version="1.0" encoding="utf-8"?>
<!-- Generator: Adobe Illustrator 21.1.0, SVG Export Plug-In . SVG Version: 6.00 Build 0)  -->
<svg version="1.1" id="组_53" xmlns="http://www.w3.org/2000/svg" xmlns:xlink="http://www.w3.org/1999/xlink" x="0px" y="0px"
	 width="150px" height="150px" viewBox="0 0 150 150" style="enable-background:new 0 0 150 150;" xml:space="preserve">
<style type="text/css">
	.st0{fill:url(#路径_46_1_);}
	.st1{fill:url(#路径_47_1_);}
	.st2{fill:url(#路径_48_1_);}
	.st3{fill:url(#路径_49_1_);}
	.st4{fill:url(#路径_50_1_);}
	.st5{fill:url(#路径_51_1_);}
	.st6{fill:url(#路径_52_1_);}
	.st7{fill:url(#路径_53_1_);}
	.st8{fill:url(#路径_54_1_);}
	.st9{fill:url(#路径_55_1_);}
</style>
<g id="组_48" transform="translate(0 40.655)">
	<g id="组_41">
		<g id="组_38" transform="translate(0)">
			
				<linearGradient id="路径_46_1_" gradientUnits="userSpaceOnUse" x1="-42.8145" y1="111.7231" x2="-41.5105" y2="111.7231" gradientTransform="matrix(49.095 0 0 -56.3807 2168.6985 6353.7061)">
				<stop  offset="0" style="stop-color:#FF5A00"/>
				<stop  offset="1" style="stop-color:#FDA61A"/>
			</linearGradient>
			<path id="路径_46" class="st0" d="M51.5,82.9c-0.2,0-0.3,0-0.5-0.1L27.4,69.1c-0.3-0.2-0.5-0.5-0.5-0.9V41.1
				c0-0.4,0.2-0.7,0.5-0.9L51,26.6c0.3-0.2,0.7-0.2,1,0l23.5,13.6c0.3,0.2,0.5,0.5,0.5,0.9v27.2c0,0.4-0.2,0.7-0.5,0.9L52,82.7
				C51.8,82.8,51.6,82.9,51.5,82.9z M28.9,67.7l22.5,13l22.5-13v-26l-22.5-13l-22.5,13V67.7z"/>
		</g>
		<g id="组_39" transform="translate(0 13.594)">
			
				<linearGradient id="路径_47_1_" gradientUnits="userSpaceOnUse" x1="-40.7298" y1="97.9635" x2="-38.2318" y2="97.9635" gradientTransform="matrix(25.6305 0 0 -42.645 1110.6406 4225.459)">
				<stop  offset="0" style="stop-color:#FF5A00"/>
				<stop  offset="1" style="stop-color:#FDA61A"/>
			</linearGradient>
			<path id="路径_47" class="st1" d="M51.5,69.1c-0.6,0-1-0.4-1-1l-0.1-26.5l-23-13.3c-0.5-0.3-0.6-0.9-0.4-1.4
				c0.3-0.5,0.9-0.6,1.4-0.4L52,40.2c0.3,0.2,0.5,0.5,0.5,0.9l0.1,27C52.5,68.7,52.1,69.1,51.5,69.1L51.5,69.1z"/>
		</g>
		<g id="组_40" transform="translate(23.548 13.735)">
			
				<linearGradient id="路径_48_1_" gradientUnits="userSpaceOnUse" x1="-65.1773" y1="96.6277" x2="-62.6623" y2="96.6277" gradientTransform="matrix(25.4899 0 0 -15.4682 1704.5317 1528.8588)">
				<stop  offset="0" style="stop-color:#FF5A00"/>
				<stop  offset="1" style="stop-color:#FDA61A"/>
			</linearGradient>
			<path id="路径_48" class="st2" d="M27.9,41.9c-0.6,0-1-0.4-1-1c0-0.4,0.2-0.7,0.5-0.9l23.5-13.5c0.5-0.3,1.1-0.1,1.4,0.3
				c0.3,0.5,0.1,1.1-0.3,1.4c0,0,0,0,0,0L28.4,41.8C28.3,41.9,28.1,41.9,27.9,41.9z"/>
		</g>
	</g>
	<g id="组_47" transform="translate(47.089)">
		<g id="组_42" transform="translate(0 13.594)">
			
				<linearGradient id="路径_49_1_" gradientUnits="userSpaceOnUse" x1="-89.6557" y1="97.9635" x2="-87.1577" y2="97.9635" gradientTransform="matrix(25.6295 0 0 -42.6471 2317.4629 4225.6616)">
				<stop  offset="0" style="stop-color:#FF5A00"/>
				<stop  offset="1" style="stop-color:#FDA61A"/>
			</linearGradient>
			<path id="路径_49" class="st3" d="M51.5,69.1c-0.6,0-1-0.4-1-1l-0.1-26.5l-23-13.3c-0.5-0.3-0.6-0.9-0.4-1.4
				c0.3-0.5,0.9-0.6,1.4-0.4L52,40.2c0.3,0.2,0.5,0.5,0.5,0.9l0.1,27C52.5,68.7,52.1,69.1,51.5,69.1L51.5,69.1z"/>
		</g>
		<g id="组_43" transform="translate(23.547 13.735)">
			
				<linearGradient id="路径_50_1_" gradientUnits="userSpaceOnUse" x1="-114.1142" y1="96.6277" x2="-111.5992" y2="96.6277" gradientTransform="matrix(25.4888 0 0 -15.4682 2904.6787 1528.8588)">
				<stop  offset="0" style="stop-color:#FF5A00"/>
				<stop  offset="1" style="stop-color:#FDA61A"/>
			</linearGradient>
			<path id="路径_50" class="st4" d="M27.9,41.9c-0.6,0-1-0.4-1-1c0-0.4,0.2-0.7,0.5-0.9l23.5-13.5c0.5-0.3,1.1-0.1,1.4,0.3
				c0.3,0.5,0.1,1.1-0.3,1.4c0,0,0,0,0,0L28.4,41.8C28.3,41.9,28.1,41.9,27.9,41.9z"/>
		</g>
		<g id="组_46">
			<g id="组_44">
				
					<linearGradient id="路径_51_1_" gradientUnits="userSpaceOnUse" x1="-90.8626" y1="111.7231" x2="-89.5586" y2="111.7231" gradientTransform="matrix(49.1002 0 0 -56.3807 4481.0103 6353.6992)">
					<stop  offset="0" style="stop-color:#FF5A00"/>
					<stop  offset="1" style="stop-color:#FDA61A"/>
				</linearGradient>
				<path id="路径_51" class="st5" d="M51.5,82.9c-0.2,0-0.3,0-0.5-0.1L27.4,69.1c-0.5-0.3-0.6-0.9-0.4-1.4
					c0.3-0.5,0.9-0.6,1.4-0.4c0,0,0,0,0,0l23,13.3l22.5-13v-26l-22.5-13l-23,13.3c-0.5,0.3-1.1,0.1-1.4-0.4
					c-0.3-0.5-0.1-1.1,0.4-1.4L51,26.6c0.3-0.2,0.7-0.2,1,0l23.5,13.6c0.3,0.2,0.5,0.5,0.5,0.9v27.2c0,0.4-0.2,0.7-0.5,0.9L52,82.7
					C51.8,82.8,51.6,82.9,51.5,82.9z"/>
			</g>
			<g id="组_45" transform="translate(0 13.594)">
				
					<linearGradient id="路径_52_1_" gradientUnits="userSpaceOnUse" x1="-89.6557" y1="97.9635" x2="-87.1577" y2="97.9635" gradientTransform="matrix(25.6295 0 0 -42.6471 2317.4629 4225.6616)">
					<stop  offset="0" style="stop-color:#FF5A00"/>
					<stop  offset="1" style="stop-color:#FDA61A"/>
				</linearGradient>
				<path id="路径_52" class="st6" d="M51.5,69.1c-0.6,0-1-0.4-1-1l-0.1-26.5l-23-13.3c-0.5-0.3-0.6-0.9-0.4-1.4
					c0.3-0.5,0.9-0.6,1.4-0.4L52,40.2c0.3,0.2,0.5,0.5,0.5,0.9l0.1,27C52.5,68.7,52.1,69.1,51.5,69.1L51.5,69.1z"/>
			</g>
		</g>
	</g>
</g>
<g id="组_52" transform="translate(23.544)">
	<g id="组_49" transform="translate(0.001)">
		
			<linearGradient id="路径_53_1_" gradientUnits="userSpaceOnUse" x1="-66.8395" y1="152.2148" x2="-65.5355" y2="152.2148" gradientTransform="matrix(49.095 0 0 -42.79 3324.6394 6561.1401)">
			<stop  offset="0" style="stop-color:#FF5A00"/>
			<stop  offset="1" style="stop-color:#FDA61A"/>
		</linearGradient>
		<path id="路径_53" class="st7" d="M75,69.3c-0.6,0-1-0.4-1-1V41.7l-22.5-13l-22.5,13v26.6c0,0.6-0.4,1-1,1s-1-0.4-1-1V41.1
			c0-0.4,0.2-0.7,0.5-0.9L51,26.6c0.3-0.2,0.7-0.2,1,0l23.5,13.6c0.3,0.2,0.5,0.5,0.5,0.9v27.2C76,68.8,75.6,69.3,75,69.3z"/>
	</g>
	<g id="组_50" transform="translate(0 13.596)">
		
			<linearGradient id="路径_54_1_" gradientUnits="userSpaceOnUse" x1="-65.1934" y1="138.6166" x2="-62.6944" y2="138.6166" gradientTransform="matrix(25.6352 0 0 -42.6506 1714.3999 5959.8853)">
			<stop  offset="0" style="stop-color:#FF5A00"/>
			<stop  offset="1" style="stop-color:#FDA61A"/>
		</linearGradient>
		<path id="路径_54" class="st8" d="M51.5,69.1c-0.6,0-1-0.4-1-1l-0.1-26.5l-23-13.3c-0.5-0.3-0.6-0.9-0.4-1.4
			c0.3-0.5,0.9-0.6,1.4-0.4c0,0,0,0,0,0L52,40.2c0.3,0.2,0.5,0.5,0.5,0.9l0.1,27C52.5,68.7,52.1,69.1,51.5,69.1L51.5,69.1z"/>
	</g>
	<g id="组_51" transform="translate(23.548 13.738)">
		
			<linearGradient id="路径_55_1_" gradientUnits="userSpaceOnUse" x1="-89.6426" y1="137.2776" x2="-87.1286" y2="137.2776" gradientTransform="matrix(25.4654 0 0 -15.4507 2302.4102 2155.2434)">
			<stop  offset="0" style="stop-color:#FF5A00"/>
			<stop  offset="1" style="stop-color:#FDA61A"/>
		</linearGradient>
		<path id="路径_55" class="st9" d="M27.9,41.9c-0.6,0-1-0.4-1-1c0-0.4,0.2-0.7,0.5-0.9l23.5-13.5c0.5-0.3,1.1-0.1,1.4,0.4
			s0.1,1.1-0.4,1.4L28.4,41.8C28.3,41.9,28.1,41.9,27.9,41.9z"/>
	</g>
</g>
</svg>
