<?xml version="1.0" encoding="utf-8"?>
<!-- Generator: Adobe Illustrator 21.1.0, SVG Export Plug-In . SVG Version: 6.00 Build 0)  -->
<svg version="1.1" id="组_109" xmlns="http://www.w3.org/2000/svg" xmlns:xlink="http://www.w3.org/1999/xlink" x="0px" y="0px"
	 width="64.9px" height="58.9px" viewBox="0 0 64.9 58.9" style="enable-background:new 0 0 64.9 58.9;" xml:space="preserve">
<style type="text/css">
	.st0{opacity:0.1;fill:#FFFFFF;}
</style>
<path id="路径_88" class="st0" d="M28.7,12.3c-2.8-3.7-6.2-5.7-10.1-6C14.2,5.8,9.9,7,6.5,9.7c-3.4,2.7-5.4,6.7-5.6,11
	c-0.7,7.9,3.7,13.9,13,17.8c0.4,0.2,1.1,0.6,0.7,1.2c-1.7,2.9-3.9,5.5-6.5,7.7c-1.4,1.2-3.7,2.9-6.9,5.1c-1,0.6-1.5,1.9-1,3l1.5,2.2
	c0.8,0.8,2,1,3,0.5C18.5,50.5,27.3,42,31,32.8C26.9,26.8,26,19.1,28.7,12.3L28.7,12.3z"/>
<path id="路径_89" class="st0" d="M33.1,58.6c-1.1,0.6-2.5,0.4-3.3-0.5l-1.6-2.5c-0.5-1.3,0-2.7,1.2-3.4c3.5-2.5,6.1-4.4,7.7-5.7
	c2.9-2.5,5.4-5.4,7.3-8.7c0.4-0.7-0.4-1.2-0.8-1.4C33,32,28.1,25.3,28.8,16.3c0.2-4.8,2.5-9.4,6.3-12.4c3.8-3,8.7-4.4,13.6-3.8
	c4.7,0.4,8.7,2.9,11.9,7.5c3,3.8,4.5,8.6,4.2,13.5C63.7,34.8,53.1,47.3,33.1,58.6L33.1,58.6z"/>
</svg>
