<?xml version="1.0" encoding="utf-8"?>
<!-- Generator: Adobe Illustrator 21.1.0, SVG Export Plug-In . SVG Version: 6.00 Build 0)  -->
<svg version="1.1" id="组_80" xmlns="http://www.w3.org/2000/svg" xmlns:xlink="http://www.w3.org/1999/xlink" x="0px" y="0px"
	 width="150px" height="150px" viewBox="0 0 150 150" style="enable-background:new 0 0 150 150;" xml:space="preserve">
<style type="text/css">
	.st0{fill:url(#路径_56_1_);}
	.st1{fill:url(#路径_57_1_);}
	.st2{fill:url(#路径_58_1_);}
	.st3{fill:url(#路径_59_1_);}
	.st4{fill:url(#路径_60_1_);}
	.st5{fill:url(#路径_61_1_);}
	.st6{fill:url(#路径_62_1_);}
	.st7{fill:url(#路径_63_1_);}
	.st8{fill:url(#路径_64_1_);}
	.st9{fill:url(#路径_65_1_);}
	.st10{fill:url(#路径_66_1_);}
	.st11{fill:url(#路径_67_1_);}
	.st12{fill:url(#路径_68_1_);}
	.st13{fill:url(#路径_69_1_);}
	.st14{fill:url(#路径_70_1_);}
	.st15{fill:url(#路径_71_1_);}
	.st16{fill:url(#路径_72_1_);}
	.st17{fill:url(#路径_73_1_);}
	.st18{fill:url(#路径_74_1_);}
	.st19{fill:url(#路径_75_1_);}
	.st20{fill:url(#路径_76_1_);}
	.st21{fill:url(#路径_77_1_);}
	.st22{fill:url(#路径_78_1_);}
	.st23{fill:url(#路径_79_1_);}
	.st24{fill:url(#路径_80_1_);}
</style>
<g id="组_78">
	<g id="组_54" transform="translate(30.867 30.868)">
		
			<linearGradient id="路径_56_1_" gradientUnits="userSpaceOnUse" x1="-72.308" y1="120.8675" x2="-69.076" y2="120.8675" gradientTransform="matrix(19.9559 0 0 -19.0357 1468.0574 2323.4768)">
			<stop  offset="0" style="stop-color:#FF5A00"/>
			<stop  offset="1" style="stop-color:#FDA61A"/>
		</linearGradient>
		<path id="路径_56" class="st0" d="M46,32.2c-0.6,0-1-0.4-1-1c0-0.4,0.2-0.7,0.6-0.9c4-1.9,5.6-6.7,3.6-10.7
			c-1.9-4-6.7-5.6-10.7-3.6c-4,1.9-5.6,6.7-3.6,10.7c0.7,1.5,1.9,2.7,3.4,3.5c0.5,0.3,0.7,0.9,0.4,1.4s-0.9,0.7-1.4,0.4
			c-4.9-2.6-6.7-8.6-4.2-13.5c2.6-4.9,8.6-6.7,13.5-4.2c4.9,2.6,6.7,8.6,4.2,13.5c-1,1.9-2.5,3.4-4.4,4.3
			C46.3,32.2,46.1,32.2,46,32.2z"/>
	</g>
	<g id="组_55" transform="translate(17.769 17.769)">
		
			<linearGradient id="路径_57_1_" gradientUnits="userSpaceOnUse" x1="-60.9184" y1="134.4536" x2="-59.5214" y2="134.4536" gradientTransform="matrix(46.1603 0 0 -45.2793 2850.1946 6123.7778)">
			<stop  offset="0" style="stop-color:#FF5A00"/>
			<stop  offset="1" style="stop-color:#FDA61A"/>
		</linearGradient>
		<path id="路径_57" class="st1" d="M61.3,58.5c-0.6,0-1-0.4-1-1c0-0.4,0.3-0.8,0.7-1c11.2-3.2,17.6-14.9,14.4-26.1
			C72.1,19.2,60.4,12.8,49.2,16S31.6,30.9,34.9,42.1c2,6.8,7.3,12.2,14,14.3c0.5,0.2,0.8,0.7,0.7,1.2c-0.2,0.5-0.7,0.8-1.2,0.7
			c-12.2-3.8-19-16.7-15.3-28.8c3.8-12.2,16.7-19,28.8-15.3C74.1,18,80.9,30.9,77.2,43c-2.3,7.4-8.2,13.2-15.6,15.4
			C61.4,58.4,61.4,58.5,61.3,58.5z"/>
	</g>
	<g id="组_56">
		
			<linearGradient id="路径_58_1_" gradientUnits="userSpaceOnUse" x1="-42.5394" y1="152.3324" x2="-40.9974" y2="152.3324" gradientTransform="matrix(41.8451 0 0 -65.685 1836.0073 10051.9648)">
			<stop  offset="0" style="stop-color:#FF5A00"/>
			<stop  offset="1" style="stop-color:#FDA61A"/>
		</linearGradient>
		<path id="路径_58" class="st2" d="M41,78.8c-0.3,0-0.6-0.1-0.8-0.4c-13.5-18.1-9.8-43.7,8.3-57.2c7.1-5.3,15.6-8.1,24.4-8.1
			c0.6,0,1,0.4,1,1s-0.4,1-1,1C51.4,15.2,34,32.6,34.1,54c0,8.4,2.7,16.5,7.7,23.2c0.3,0.4,0.2,1.1-0.2,1.4
			C41.4,78.8,41.2,78.9,41,78.8L41,78.8z"/>
	</g>
	<g id="组_57" transform="translate(19.898 74.342)">
		
			<linearGradient id="路径_59_1_" gradientUnits="userSpaceOnUse" x1="-59.5885" y1="75.8786" x2="-55.4115" y2="75.8786" gradientTransform="matrix(15.397 0 0 -6.793 953.5556 532.0257)">
			<stop  offset="0" style="stop-color:#FF5A00"/>
			<stop  offset="1" style="stop-color:#FDA61A"/>
		</linearGradient>
		<path id="路径_59" class="st3" d="M46.5,20c-0.1,0-0.1,0-0.2,0c-4.9-0.8-9.5-2.5-13.8-4.9c-0.5-0.3-0.6-0.9-0.3-1.4
			c0.3-0.4,0.8-0.6,1.3-0.3c4,2.3,8.5,3.9,13.1,4.7c0.5,0.1,0.9,0.6,0.8,1.2C47.4,19.6,47,20,46.5,20L46.5,20z"/>
	</g>
	<g id="组_58" transform="translate(60.951 6.062)">
		
			<linearGradient id="路径_60_1_" gradientUnits="userSpaceOnUse" x1="-85.9288" y1="138.4644" x2="-53.6798" y2="138.4644" gradientTransform="matrix(2.0001 0 0 -1.9877 166.8656 289.3818)">
			<stop  offset="0" style="stop-color:#FF5A00"/>
			<stop  offset="1" style="stop-color:#FDA61A"/>
		</linearGradient>
		<path id="路径_60" class="st4" d="M33,15.2c-0.3,0-0.5-0.1-0.7-0.3c-0.1-0.1-0.2-0.2-0.2-0.3c-0.1-0.1-0.1-0.2-0.1-0.4
			c0-0.3,0.1-0.5,0.3-0.7c0.4-0.4,1-0.4,1.4,0c0.2,0.2,0.3,0.4,0.3,0.7c0,0.3-0.1,0.5-0.3,0.7C33.6,15,33.3,15.2,33,15.2z"/>
	</g>
	<g id="组_59" transform="translate(45.98 15.335)">
		
			<linearGradient id="路径_61_1_" gradientUnits="userSpaceOnUse" x1="-89.3923" y1="136.9981" x2="-87.5863" y2="136.9981" gradientTransform="matrix(35.7115 0 0 -65.8828 3202.3086 9071.9307)">
			<stop  offset="0" style="stop-color:#FF5A00"/>
			<stop  offset="1" style="stop-color:#FDA61A"/>
		</linearGradient>
		<path id="路径_61" class="st5" d="M33,79c-0.6,0-1-0.4-1-1c0-0.5,0.4-0.9,0.9-1c18.9-3,32.8-19.3,32.9-38.4
			c0-8.7-2.9-17.1-8.2-23.9c-0.3-0.4-0.3-1.1,0.2-1.4c0.4-0.3,1.1-0.3,1.4,0.2c5.6,7.2,8.7,16,8.6,25.1C67.6,58.8,53,75.8,33.2,79
			C33.2,79,33.1,79,33,79z"/>
	</g>
	<g id="组_60" transform="translate(60.955 3.298)">
		
			<linearGradient id="路径_62_1_" gradientUnits="userSpaceOnUse" x1="-103.1518" y1="148.1381" x2="-98.7048" y2="148.1381" gradientTransform="matrix(14.5045 0 0 -14.0364 1491.1572 2099.5171)">
			<stop  offset="0" style="stop-color:#FF5A00"/>
			<stop  offset="1" style="stop-color:#FDA61A"/>
		</linearGradient>
		<path id="路径_62" class="st6" d="M43.4,27.2c-0.6,0-1-0.4-1-1c0-0.3,0.1-0.5,0.3-0.7c2.4-2.2,2.5-6,0.3-8.4s-6-2.5-8.4-0.3
			c-0.2,0.2-0.5,0.5-0.7,0.8c-0.3,0.4-1,0.5-1.4,0.2c-0.4-0.3-0.5-1-0.2-1.4c2.7-3.5,7.7-4.2,11.2-1.5c2,1.5,3.1,3.8,3.1,6.3
			c0,2.2-0.9,4.3-2.5,5.8C43.9,27.1,43.6,27.2,43.4,27.2z"/>
	</g>
	<g id="组_61" transform="translate(59.537 6.046)">
		
			<linearGradient id="路径_63_1_" gradientUnits="userSpaceOnUse" x1="-101.473" y1="145.3156" x2="-96.773" y2="145.3156" gradientTransform="matrix(13.7218 0 0 -13.1747 1388.8092 1934.24)">
			<stop  offset="0" style="stop-color:#FF5A00"/>
			<stop  offset="1" style="stop-color:#FDA61A"/>
		</linearGradient>
		<path id="路径_63" class="st7" d="M40,26.3c-4.4,0-8-3.6-8-8c0-1.7,0.6-3.4,1.6-4.8c0.3-0.4,1-0.5,1.4-0.2
			c0.4,0.3,0.5,1,0.2,1.4l0,0c-2,2.6-1.5,6.4,1.1,8.4c2.3,1.8,5.6,1.6,7.7-0.4c0.4-0.4,1-0.4,1.4,0c0.4,0.4,0.4,1,0,1.4
			C44,25.6,42,26.3,40,26.3z"/>
	</g>
	<g id="组_62" transform="translate(7.915 61.553)">
		
			<linearGradient id="路径_64_1_" gradientUnits="userSpaceOnUse" x1="-46.8727" y1="89.9413" x2="-42.7167" y2="89.9413" gradientTransform="matrix(15.5156 0 0 -14.7921 775.2917 1350.9771)">
			<stop  offset="0" style="stop-color:#FF5A00"/>
			<stop  offset="1" style="stop-color:#FDA61A"/>
		</linearGradient>
		<path id="路径_64" class="st8" d="M45,28c-0.6,0-1-0.4-1-1c0-0.2,0.1-0.4,0.2-0.6c2.3-3.2,1.6-7.6-1.6-9.9
			c-2.7-2-6.5-1.8-8.9,0.5c-0.4,0.4-1,0.3-1.4-0.1c-0.4-0.4-0.3-1,0.1-1.4c3.7-3.4,9.4-3.2,12.8,0.5c2.9,3.2,3.2,8,0.7,11.5
			C45.7,27.8,45.4,28,45,28z"/>
	</g>
	<g id="组_63" transform="translate(5.312 63.684)">
		
			<linearGradient id="路径_65_1_" gradientUnits="userSpaceOnUse" x1="-44.5001" y1="87.8917" x2="-40.6121" y2="87.8917" gradientTransform="matrix(16.59 0 0 -15.9948 788.9019 1426.9695)">
			<stop  offset="0" style="stop-color:#FF5A00"/>
			<stop  offset="1" style="stop-color:#FDA61A"/>
		</linearGradient>
		<path id="路径_65" class="st9" d="M41.1,29.2c-5,0-9.1-4.1-9.1-9.1c0-2.5,1.1-5,2.9-6.7c0.4-0.4,1-0.4,1.4,0
			c0.4,0.4,0.4,1,0,1.4c0,0,0,0,0,0c-2.9,2.6-3,7.1-0.4,10s7.1,3,10,0.4c0.3-0.3,0.6-0.7,0.9-1c0.3-0.4,1-0.5,1.4-0.2
			c0.4,0.3,0.5,1,0.2,1.4l0,0C46.7,27.8,44,29.1,41.1,29.2z"/>
	</g>
	<g id="组_64" transform="translate(43.806 47.9)">
		
			<linearGradient id="路径_66_1_" gradientUnits="userSpaceOnUse" x1="-75.074" y1="103.6202" x2="-59.621" y2="103.6202" gradientTransform="matrix(4.1731 0 0 -15.1551 325.4397 1591.1167)">
			<stop  offset="0" style="stop-color:#FF5A00"/>
			<stop  offset="1" style="stop-color:#FDA61A"/>
		</linearGradient>
		<path id="路径_66" class="st10" d="M35.2,28.3c-0.6,0-1-0.4-1-1v-8.4c0-1.5-0.7-3-1.8-4c-0.4-0.4-0.5-1-0.1-1.4s1-0.5,1.4-0.1
			c1.6,1.4,2.5,3.4,2.5,5.5v8.4C36.2,27.9,35.8,28.3,35.2,28.3z"/>
	</g>
	<g id="组_65" transform="translate(33.34 47.782)">
		
			<linearGradient id="路径_67_1_" gradientUnits="userSpaceOnUse" x1="-62.6085" y1="103.7385" x2="-47.6505" y2="103.7385" gradientTransform="matrix(4.3087 0 0 -15.1588 292.3763 1593.2949)">
			<stop  offset="0" style="stop-color:#FF5A00"/>
			<stop  offset="1" style="stop-color:#FDA61A"/>
		</linearGradient>
		<path id="路径_67" class="st11" d="M33,28.3c-0.6,0-1-0.4-1-1v-8.3c0-2.2,1-4.3,2.7-5.7c0.4-0.3,1.1-0.3,1.4,0.1
			c0.3,0.4,0.3,1.1-0.1,1.4c-1.2,1-1.9,2.5-1.9,4.1v8.3C34,27.9,33.6,28.3,33,28.3L33,28.3z"/>
	</g>
	<g id="组_66" transform="translate(33.34 60.944)">
		
			<linearGradient id="路径_68_1_" gradientUnits="userSpaceOnUse" x1="-44.5105" y1="90.8404" x2="-12.2605" y2="90.8404" gradientTransform="matrix(2 0 0 -20.213 111.6305 1859.4313)">
			<stop  offset="0" style="stop-color:#FF5A00"/>
			<stop  offset="1" style="stop-color:#FDA61A"/>
		</linearGradient>
		<path id="路径_68" class="st12" d="M33,33.4c-0.6,0-1-0.4-1-1V14.2c0-0.6,0.4-1,1-1s1,0.4,1,1v18.2C34,32.9,33.6,33.4,33,33.4z"
			/>
	</g>
	<g id="组_67" transform="translate(35.652 46.348)">
		
			<linearGradient id="路径_69_1_" gradientUnits="userSpaceOnUse" x1="-74.1747" y1="101.7236" x2="-67.8237" y2="101.7236" gradientTransform="matrix(10.1519 0 0 -3.5521 773.3228 376.2695)">
			<stop  offset="0" style="stop-color:#FF5A00"/>
			<stop  offset="1" style="stop-color:#FDA61A"/>
		</linearGradient>
		<path id="路径_69" class="st13" d="M41.2,16.7c-0.2,0-0.5-0.1-0.7-0.2c-2-1.6-4.8-1.7-6.9-0.1c-0.4,0.3-1.1,0.3-1.4-0.1
			c-0.3-0.4-0.3-1.1,0.1-1.4c2.8-2.3,6.8-2.2,9.4,0.1c0.4,0.4,0.5,1,0.1,1.4C41.8,16.6,41.5,16.7,41.2,16.7L41.2,16.7z"/>
	</g>
	<g id="组_68" transform="translate(33.34 79.157)">
		
			<linearGradient id="路径_70_1_" gradientUnits="userSpaceOnUse" x1="-44.5105" y1="72.8462" x2="-12.2605" y2="72.8462" gradientTransform="matrix(2 0 0 -27.933 111.6305 2061.9443)">
			<stop  offset="0" style="stop-color:#FF5A00"/>
			<stop  offset="1" style="stop-color:#FDA61A"/>
		</linearGradient>
		<path id="路径_70" class="st14" d="M33,41.1c-0.6,0-1-0.4-1-1V14.2c0-0.6,0.4-1,1-1s1,0.4,1,1v25.9C34,40.7,33.6,41.1,33,41.1z"
			/>
	</g>
	<g id="组_69" transform="translate(45.98 61.054)">
		
			<linearGradient id="路径_71_1_" gradientUnits="userSpaceOnUse" x1="-63.4695" y1="90.7285" x2="-31.2205" y2="90.7285" gradientTransform="matrix(2 0 0 -20.164 136.9105 1852.6978)">
			<stop  offset="0" style="stop-color:#FF5A00"/>
			<stop  offset="1" style="stop-color:#FDA61A"/>
		</linearGradient>
		<path id="路径_71" class="st15" d="M33,33.3c-0.6,0-1-0.4-1-1V14.2c0-0.6,0.4-1,1-1s1,0.4,1,1v18.2C34,32.9,33.6,33.3,33,33.3z"
			/>
	</g>
	<g id="组_70" transform="translate(45.98 79.218)">
		
			<linearGradient id="路径_72_1_" gradientUnits="userSpaceOnUse" x1="-63.4695" y1="72.11" x2="-31.2205" y2="72.11" gradientTransform="matrix(2 0 0 -12.821 136.9105 944.1027)">
			<stop  offset="0" style="stop-color:#FF5A00"/>
			<stop  offset="1" style="stop-color:#FDA61A"/>
		</linearGradient>
		<path id="路径_72" class="st16" d="M33,26c-0.6,0-1-0.4-1-1V14.2c0-0.6,0.4-1,1-1s1,0.4,1,1V25C34,25.5,33.6,26,33,26L33,26z"/>
	</g>
	<g id="组_71" transform="translate(45.98 90.039)">
		
			<linearGradient id="路径_73_1_" gradientUnits="userSpaceOnUse" x1="-63.4695" y1="61.0331" x2="-31.2205" y2="61.0331" gradientTransform="matrix(2 0 0 -10.639 136.9105 667.8152)">
			<stop  offset="0" style="stop-color:#FF5A00"/>
			<stop  offset="1" style="stop-color:#FDA61A"/>
		</linearGradient>
		<path id="路径_73" class="st17" d="M33,23.8c-0.6,0-1-0.4-1-1v-8.6c0-0.6,0.4-1,1-1s1,0.4,1,1v8.6C34,23.4,33.6,23.8,33,23.8z"
			/>
	</g>
	<g id="组_72" transform="translate(45.98 83.719)">
		
			<linearGradient id="路径_74_1_" gradientUnits="userSpaceOnUse" x1="-87.1793" y1="66.934" x2="-82.7743" y2="66.934" gradientTransform="matrix(14.641 0 0 -8.3205 1286.3622 574.2501)">
			<stop  offset="0" style="stop-color:#FF5A00"/>
			<stop  offset="1" style="stop-color:#FDA61A"/>
		</linearGradient>
		<path id="路径_74" class="st18" d="M45.7,21.5c-0.6,0-1-0.4-1-1c0-2.9-2.4-5.3-5.3-5.3c-2.9,0-5.3,2.4-5.3,5.3c0,0.6-0.4,1-1,1
			s-1-0.4-1-1c0-4,3.3-7.3,7.3-7.3c4,0,7.3,3.3,7.3,7.3l0,0C46.7,21,46.2,21.5,45.7,21.5z"/>
	</g>
	<g id="组_73" transform="translate(58.621 90.039)">
		
			<linearGradient id="路径_75_1_" gradientUnits="userSpaceOnUse" x1="-82.4315" y1="61.0331" x2="-50.1825" y2="61.0331" gradientTransform="matrix(2 0 0 -10.639 162.1925 667.8152)">
			<stop  offset="0" style="stop-color:#FF5A00"/>
			<stop  offset="1" style="stop-color:#FDA61A"/>
		</linearGradient>
		<path id="路径_75" class="st19" d="M33,23.8c-0.6,0-1-0.4-1-1v-8.6c0-0.6,0.4-1,1-1s1,0.4,1,1v8.6C34,23.4,33.6,23.8,33,23.8z"
			/>
	</g>
	<g id="组_74" transform="translate(58.621 83.719)">
		
			<linearGradient id="路径_76_1_" gradientUnits="userSpaceOnUse" x1="-100.6839" y1="66.9531" x2="-96.2779" y2="66.9531" gradientTransform="matrix(14.64 0 0 -8.4039 1471.3373 579.9535)">
			<stop  offset="0" style="stop-color:#FF5A00"/>
			<stop  offset="1" style="stop-color:#FDA61A"/>
		</linearGradient>
		<path id="路径_76" class="st20" d="M45.7,21.5c-0.6,0-1-0.4-1-1c0-2.9-2.3-5.4-5.2-5.4c-2.9,0-5.4,2.3-5.4,5.2c0,0,0,0.1,0,0.1
			c0,0.6-0.4,1-1,1s-1-0.4-1-1c0-4,3.2-7.4,7.2-7.4s7.4,3.2,7.4,7.2c0,0.1,0,0.1,0,0.2C46.7,21,46.2,21.5,45.7,21.5z"/>
	</g>
	<g id="组_75" transform="translate(71.26 90.039)">
		
			<linearGradient id="路径_77_1_" gradientUnits="userSpaceOnUse" x1="-101.3905" y1="61.0331" x2="-69.1405" y2="61.0331" gradientTransform="matrix(2 0 0 -10.639 187.4705 667.8152)">
			<stop  offset="0" style="stop-color:#FF5A00"/>
			<stop  offset="1" style="stop-color:#FDA61A"/>
		</linearGradient>
		<path id="路径_77" class="st21" d="M33,23.8c-0.6,0-1-0.4-1-1v-8.6c0-0.6,0.4-1,1-1s1,0.4,1,1v8.6C34,23.4,33.6,23.8,33,23.8z"
			/>
	</g>
	<g id="组_76" transform="translate(71.26 85.917)">
		
			<linearGradient id="路径_78_1_" gradientUnits="userSpaceOnUse" x1="-114.1863" y1="66.1703" x2="-109.7803" y2="66.1703" gradientTransform="matrix(14.641 0 0 -32.7425 1656.4865 2196.1187)">
			<stop  offset="0" style="stop-color:#FF5A00"/>
			<stop  offset="1" style="stop-color:#FDA61A"/>
		</linearGradient>
		<path id="路径_78" class="st22" d="M45.7,45.9c-0.6,0-1-0.4-1-1V20.5c0-2.9-2.4-5.3-5.3-5.3c-2.9,0-5.3,2.4-5.3,5.3
			c0,0.6-0.4,1-1,1s-1-0.4-1-1c0-4,3.3-7.3,7.3-7.3c4,0,7.3,3.3,7.3,7.3v24.4C46.7,45.5,46.2,45.9,45.7,45.9z"/>
	</g>
	<g id="组_77" transform="translate(14.943 89.423)">
		
			<linearGradient id="路径_79_1_" gradientUnits="userSpaceOnUse" x1="-55.6749" y1="62.6852" x2="-52.5129" y2="62.6852" gradientTransform="matrix(20.3726 0 0 -34.2038 1175.2665 2174.3816)">
			<stop  offset="0" style="stop-color:#FF5A00"/>
			<stop  offset="1" style="stop-color:#FDA61A"/>
		</linearGradient>
		<path id="路径_79" class="st23" d="M45.2,47.4c-0.4,0-0.7-0.2-0.9-0.5L32.9,24.5C31,20.6,32.5,16,36.4,14
			c3.8-1.9,8.4-0.4,10.4,3.4l5.6,12c0.2,0.5,0,1.1-0.5,1.3c-0.5,0.2-1.1,0-1.3-0.5l-5.6-12c-1.5-2.8-4.9-4-7.8-2.5
			c-2.8,1.5-4,4.9-2.5,7.8l0,0L46.1,46c0.3,0.5,0.1,1.1-0.4,1.3C45.5,47.4,45.3,47.4,45.2,47.4L45.2,47.4z"/>
	</g>
</g>
<g id="组_79" transform="translate(49.561 0.834)">
	
		<linearGradient id="路径_80_1_" gradientUnits="userSpaceOnUse" x1="-68.8438" y1="143.7271" x2="-36.5949" y2="143.7271" gradientTransform="matrix(2.0001 0 0 -1.9963 144.0839 301.0837)">
		<stop  offset="0" style="stop-color:#FF5A00"/>
		<stop  offset="1" style="stop-color:#FDA61A"/>
	</linearGradient>
	<path id="路径_80" class="st24" d="M33,15.2c-0.1,0-0.3,0-0.4-0.1c-0.1-0.1-0.2-0.1-0.3-0.2c-0.1-0.1-0.2-0.2-0.2-0.3
		c0-0.1-0.1-0.3-0.1-0.4c0-0.3,0.1-0.5,0.3-0.7c0.2-0.2,0.6-0.3,0.9-0.3c0.1,0,0.1,0,0.2,0.1s0.1,0.1,0.2,0.1c0.1,0,0.1,0.1,0.1,0.1
		c0,0,0.1,0.1,0.1,0.2c0,0,0.1,0.1,0.1,0.2s0,0.1,0.1,0.2c0,0.1,0,0.1,0,0.2c0,0.3-0.1,0.5-0.3,0.7c0,0.1-0.1,0.1-0.1,0.1
		c0,0-0.1,0.1-0.2,0.1c-0.1,0-0.1,0-0.2,0C33.2,15.2,33.1,15.2,33,15.2z"/>
</g>
</svg>
